…
\#Data Cleaning

``` r
wine_data <- wine_data %>% 
  filter(!is.na(province)) %>% 
  filter(!is.na(price))
##Filter all NA's
wine_data %>% 
  count(province)
```

    ## # A tibble: 422 x 2
    ##    province             n
    ##    <chr>            <int>
    ##  1 Achaia               5
    ##  2 Aconcagua Costa     27
    ##  3 Aconcagua Valley   114
    ##  4 Aegean              22
    ##  5 Agioritikos          3
    ##  6 Ahr                  9
    ##  7 Alenquer             6
    ##  8 Alentejano         821
    ##  9 Alentejo           166
    ## 10 Alenteo              1
    ## # … with 412 more rows
…
